[
    {
        "uuid": "1",
        "address": {
            "full": {
                "zh": "",
                "en": "Temple Mall North Carpark, Level 3, 136 Lung Cheung Rd, Wong Tai Sin, Kln"
            },
            "streetName": "Temple Mall North Carpark, Level 3, 136 Lung Cheung Rd, Wong Tai Sin, Kln",
            "region": "Kowloon",
            "district": "Wong Tai Sin",
            "locationName": {
                "zh": "",
                "en": "Temple Mall North"
            },
            "geocode": {
                "WGS84": {
                    "lat": "22.3425903320313",
                    "lng": "114.190719604492"
                }
            }
        },
        "provider": "CLP",
        "type": {
            "charging": [
                "SemiQuick"
            ],
            "vehicle": "General"
        },
        "publicPermit": true,
        "parkingSlot": [
            "320",
            "321",
            "322"
        ],
        "updateCheckSum": "0x2649d12c"
    },
    {
        "uuid": "2",
        "address": {
            "full": {
                "zh": "",
                "en": "Fu Shing Building Carpark, 1/F 9 Sai Ching Street, Yuen Long, Nt"
            },
            "streetName": "Fu Shing Building Carpark, 1/F 9 Sai Ching Street, Yuen Long, NT",
            "region": "New Territories",
            "district": "Yuen Long",
            "locationName": {
                "zh": "",
                "en": "Fu Shing Building"
            },
            "geocode": {
                "WGS84": {
                    "lat": "22.4420719146729",
                    "lng": "114.027671813965"
                }
            }
        },
        "provider": "CLP",
        "type": {
            "charging": [
                "SemiQuick"
            ],
            "vehicle": "General"
        },
        "publicPermit": true,
        "parkingSlot": [
            "33",
            "34",
            "35"
        ],
        "updateCheckSum": "0xf406357b"
    },
    {
        "uuid": "3",
        "address": {
            "full": {
                "zh": "",
                "en": "Lok Fu Plaza Carpark, G/F Wang Tau Hom, Wong Tai Sin, Kln"
            },
            "streetName": "Lok Fu Plaza Carpark, G/F Wang Tau Hom, Wong Tai Sin, Kln",
            "region": "Kowloon",
            "district": "Wong Tai Sin",
            "locationName": {
                "zh": "",
                "en": "Lok Fu Plaza Carpark"
            },
            "geocode": {
                "WGS84": {
                    "lat": "22.3386573791504",
                    "lng": "114.186103820801"
                }
            }
        },
        "provider": "CLP",
        "type": {
            "charging": [
                "SemiQuick"
            ],
            "vehicle": "General"
        },
        "publicPermit": true,
        "parkingSlot": [
            "67",
            "68",
            "69"
        ],
        "updateCheckSum": "0x716fd798"
    },
    {
        "uuid": "4",
        "address": {
            "full": {
                "zh": "",
                "en": "Megabox Carpark,  B/F 38 Wang Chiu Road, Kowloon Bay, Kln"
            },
            "streetName": "MegaBox Carpark,  B/F 38 Wang Chiu Road, Kowloon Bay, Kln",
            "region": "Kowloon",
            "district": "Kwun Tong",
            "locationName": {
                "zh": "",
                "en": "MegaBox"
            },
            "geocode": {
                "WGS84": {
                    "lat": "22.3203277587891",
                    "lng": "114.208526611328"
                }
            }
        },
        "provider": "CLP",
        "type": {
            "charging": [
                "SemiQuick"
            ],
            "vehicle": "General"
        },
        "publicPermit": true,
        "parkingSlot": [
            "139",
            "140",
            "141"
        ],
        "updateCheckSum": "0xfd54625c"
    },
    {
        "uuid": "5",
        "address": {
            "full": {
                "zh": "",
                "en": "Carpark, G/F, The Capitol, Lohas Park, Tseung Kwan O, Nt"
            },
            "streetName": "Carpark, G/F, The Capitol, LOHAS Park, Tseung Kwan O, NT",
            "region": "New Territories",
            "district": "Sai Kung",
            "locationName": {
                "zh": "",
                "en": "LOHAS Park - the Capitol"
            },
            "geocode": {
                "WGS84": {
                    "lat": "22.2961540222168",
                    "lng": "114.272148132324"
                }
            }
        },
        "provider": "CLP",
        "type": {
            "charging": [
                "Standard"
            ],
            "vehicle": "General"
        },
        "publicPermit": true,
        "parkingSlot": [
            "V14",
            "V15",
            "V16"
        ],
        "updateCheckSum": "0xb57d37bf"
    },
    {
        "uuid": "6",
        "address": {
            "full": {
                "zh": "",
                "en": "Shek Lei Shopping Centre Phase Ii Carpark,  4/F Shek Lei Estate, Kwai Chung, Nt"
            },
            "streetName": "Shek Lei Shopping Centre Phase II Carpark,  4/F Shek Lei Estate, Kwai Chung, NT",
            "region": "New Territories",
            "district": "Kwai Tsing",
            "locationName": {
                "zh": "",
                "en": "Shek Lei Shopping Centre II"
            },
            "geocode": {
                "WGS84": {
                    "lat": "22.3658618927002",
                    "lng": "114.140121459961"
                }
            }
        },
        "provider": "CLP",
        "type": {
            "charging": [
                "SemiQuick"
            ],
            "vehicle": "General"
        },
        "publicPermit": true,
        "parkingSlot": [
            "33",
            "34",
            "35"
        ],
        "updateCheckSum": "0x3afb2d89"
    },
    {
        "uuid": "7",
        "address": {
            "full": {
                "zh": "",
                "en": "Fu Tung Shopping Centre Carpark,  G/F Fu Ting Estate, Tung Chung, Lantau, Nt"
            },
            "streetName": "Fu Tung Shopping Centre Carpark,  G/F Fu Ting Estate, Tung Chung, Lantau, NT",
            "region": "Outlying Islands",
            "district": "Outlying Islands",
            "locationName": {
                "zh": "",
                "en": "Fu Tung Shopping Centre"
            },
            "geocode": {
                "WGS84": {
                    "lat": "22.2882328033447",
                    "lng": "113.941909790039"
                }
            }
        },
        "provider": "CLP",
        "type": {
            "charging": [
                "SemiQuick"
            ],
            "vehicle": "General"
        },
        "publicPermit": true,
        "parkingSlot": [
            "1001",
            "1002",
            "1003"
        ],
        "updateCheckSum": "0x3903ab7f"
    },
    {
        "uuid": "8",
        "address": {
            "full": {
                "zh": "",
                "en": "Landmark North Carpark, B3/F  39 Lung Sum Avenue, Sheung Shui, Nt"
            },
            "streetName": "Landmark North Carpark, B3/F  39 Lung Sum Avenue, Sheung Shui, NT",
            "region": "New Territories",
            "district": "North",
            "locationName": {
                "zh": "",
                "en": "Landmark North"
            },
            "geocode": {
                "WGS84": {
                    "lat": "22.5029144287109",
                    "lng": "114.127586364746"
                }
            }
        },
        "provider": "CLP",
        "type": {
            "charging": [
                "Standard"
            ],
            "vehicle": "General"
        },
        "publicPermit": true,
        "parkingSlot": [
            "79",
            "80",
            "81"
        ],
        "updateCheckSum": "0x65503576"
    },
    {
        "uuid": "9",
        "address": {
            "full": {
                "zh": "",
                "en": "Ocean Terminal Carpark (Harbour City), 4/F 3-27 Canton Rd, Tsimshatsui, Kln"
            },
            "streetName": "Ocean Terminal Carpark (Harbour City), 4/F 3-27 Canton Rd, Tsimshatsui, Kln",
            "region": "Kowloon",
            "district": "Yau Tsim Mong",
            "locationName": {
                "zh": "",
                "en": "Ocean Terminal"
            },
            "geocode": {
                "WGS84": {
                    "lat": "22.2956161499023",
                    "lng": "114.169357299805"
                }
            }
        },
        "provider": "CLP",
        "type": {
            "charging": [
                "SemiQuick"
            ],
            "vehicle": "General"
        },
        "publicPermit": true,
        "parkingSlot": [
            "1250",
            "1251",
            "1305"
        ],
        "updateCheckSum": "0x6167c484"
    },
    {
        "uuid": "10",
        "address": {
            "full": {
                "zh": "",
                "en": "Tai Wo Shopping Centre, 1/F Carpark Tai Wo Estate, Tai Po, Nt"
            },
            "streetName": "Tai Wo Shopping Centre, 1/F Carpark Tai Wo Estate, Tai Po, NT",
            "region": "New Territories",
            "district": "Tai Po",
            "locationName": {
                "zh": "",
                "en": "Tai Wo Shopping Centre"
            },
            "geocode": {
                "WGS84": {
                    "lat": "22.4504833221436",
                    "lng": "114.160835266113"
                }
            }
        },
        "provider": "CLP",
        "type": {
            "charging": [
                "SemiQuick"
            ],
            "vehicle": "General"
        },
        "publicPermit": true,
        "parkingSlot": [
            "B1",
            "B2",
            "B3"
        ],
        "updateCheckSum": "0x53cba9e3"
    },
    {
        "uuid": "11",
        "address": {
            "full": {
                "zh": "",
                "en": "Fanling Town Centre Carpark, B/F 18 Fanling Station Road, Fanling, Nt"
            },
            "streetName": "Fanling Town Centre Carpark, B/F 18 Fanling Station Road, Fanling, NT",
            "region": "New Territories",
            "district": "North",
            "locationName": {
                "zh": "",
                "en": "Fanling Town Centre"
            },
            "geocode": {
                "WGS84": {
                    "lat": "22.4922847747803",
                    "lng": "114.138900756836"
                }
            }
        },
        "provider": "CLP",
        "type": {
            "charging": [
                "SemiQuick"
            ],
            "vehicle": "General"
        },
        "publicPermit": true,
        "parkingSlot": [
            "22",
            "23",
            "24"
        ],
        "updateCheckSum": "0xea0f2573"
    },
    {
        "uuid": "12",
        "address": {
            "full": {
                "zh": "",
                "en": "Olympian City 2 Carpark, G/F 18 Hoi Ting Road, West Kowloon"
            },
            "streetName": "Olympian City 2 Carpark, G/F 18 Hoi Ting Road, West Kowloon",
            "region": "Kowloon",
            "district": "Yau Tsim Mong",
            "locationName": {
                "zh": "",
                "en": "Olympian City 2"
            },
            "geocode": {
                "WGS84": {
                    "lat": "22.3152523040771",
                    "lng": "114.162506103516"
                }
            }
        },
        "provider": "CLP",
        "type": {
            "charging": [
                "SemiQuick"
            ],
            "vehicle": "General"
        },
        "publicPermit": true,
        "parkingSlot": [
            "33",
            "35"
        ],
        "updateCheckSum": "0x5b58c9df"
    },
    {
        "uuid": "13",
        "address": {
            "full": {
                "zh": "",
                "en": "Festival Walk Carpark, P1/F, 80 Tat Chee Avenue, Kowloon Tong, Kln"
            },
            "streetName": "Festival Walk Carpark, P1/F, 80 Tat Chee Avenue, Kowloon Tong, Kln",
            "region": "Kowloon",
            "district": "Sham Shui Po",
            "locationName": {
                "zh": "",
                "en": "Festival Walk"
            },
            "geocode": {
                "WGS84": {
                    "lat": "22.338134765625",
                    "lng": "114.17391204834"
                }
            }
        },
        "provider": "CLP",
        "type": {
            "charging": [
                "Standard"
            ],
            "vehicle": "General"
        },
        "publicPermit": true,
        "parkingSlot": [
            "P15",
            "P16"
        ],
        "updateCheckSum": "0xdc5a2a1c"
    },
    {
        "uuid": "14",
        "address": {
            "full": {
                "zh": "",
                "en": "The Long Beach Carpark, L1/F  8 Hoi Fai Road, West Kowloon"
            },
            "streetName": "The Long Beach Carpark, L1/F  8 Hoi Fai Road, West Kowloon",
            "region": "Kowloon",
            "district": "Yau Tsim Mong",
            "locationName": {
                "zh": "",
                "en": "The Long Beach"
            },
            "geocode": {
                "WGS84": {
                    "lat": "22.3194198608398",
                    "lng": "114.15657043457"
                }
            }
        },
        "provider": "CLP",
        "type": {
            "charging": [
                "SemiQuick"
            ],
            "vehicle": "General"
        },
        "publicPermit": true,
        "parkingSlot": [
            "107",
            "108"
        ],
        "updateCheckSum": "0xd9a6e8c2"
    },
    {
        "uuid": "15",
        "address": {
            "full": {
                "zh": "",
                "en": "Kwun Tong Plaza Carpark, 6/F, 68 Hoi Yuen Road, Kwun Tong, Kln"
            },
            "streetName": "Kwun Tong Plaza Carpark, 6/F, 68 Hoi Yuen Road, Kwun Tong, Kln",
            "region": "Kowloon",
            "district": "Kwun Tong",
            "locationName": {
                "zh": "",
                "en": "Kwun Tong Plaza"
            },
            "geocode": {
                "WGS84": {
                    "lat": "22.3108863830566",
                    "lng": "114.225875854492"
                }
            }
        },
        "provider": "CLP",
        "type": {
            "charging": [
                "Standard"
            ],
            "vehicle": "General"
        },
        "publicPermit": true,
        "parkingSlot": [
            "6P10"
        ],
        "updateCheckSum": "0xb5a52c6a"
    },
    {
        "uuid": "16",
        "address": {
            "full": {
                "zh": "",
                "en": "Gold Coast Piazza Carpark, B/F,  1 Castle Peak Road, Castle Peak Bay, Nt"
            },
            "streetName": "Gold Coast Piazza Carpark, B/F,  1 Castle Peak Road, Castle Peak Bay, NT",
            "region": "New Territories",
            "district": "Tuen Mun",
            "locationName": {
                "zh": "",
                "en": "Gold Coast Piazza"
            },
            "geocode": {
                "WGS84": {
                    "lat": "22.3718738555908",
                    "lng": "113.993019104004"
                }
            }
        },
        "provider": "CLP",
        "type": {
            "charging": [
                "SemiQuick"
            ],
            "vehicle": "General"
        },
        "publicPermit": true,
        "parkingSlot": [
            "189",
            "190"
        ],
        "updateCheckSum": "0x157ab915"
    },
    {
        "uuid": "17",
        "address": {
            "full": {
                "zh": "",
                "en": "China Hong Kong City Carpark, B/F 33 Canton Road, Tsim Sha Tsui, Kln"
            },
            "streetName": "China Hong Kong City Carpark, B/F 33 Canton Road, Tsim Sha Tsui, Kln",
            "region": "Kowloon",
            "district": "Yau Tsim Mong",
            "locationName": {
                "zh": "",
                "en": "China Hong Kong City"
            },
            "geocode": {
                "WGS84": {
                    "lat": "22.3010005950928",
                    "lng": "114.167915344238"
                }
            }
        },
        "provider": "CLP",
        "type": {
            "charging": [
                "Standard"
            ],
            "vehicle": "General"
        },
        "publicPermit": true,
        "parkingSlot": [
            "B111"
        ],
        "updateCheckSum": "0x403638bd"
    },
    {
        "uuid": "18",
        "address": {
            "full": {
                "zh": "",
                "en": "Chinachem Tsuen Wan Plaza, 1/F 457 Castle Peak Road, Tsuen Wan, Nt"
            },
            "streetName": "Chinachem Tsuen Wan Plaza, 1/F 457 Castle Peak Road, Tsuen Wan, NT",
            "region": "New Territories",
            "district": "Tsuen Wan",
            "locationName": {
                "zh": "",
                "en": "Chinachem Tsuen Wan Plaza"
            },
            "geocode": {
                "WGS84": {
                    "lat": "22.3752117156982",
                    "lng": "114.111328125"
                }
            }
        },
        "provider": "CLP",
        "type": {
            "charging": [
                "Standard"
            ],
            "vehicle": "General"
        },
        "publicPermit": true,
        "parkingSlot": [
            "C2"
        ],
        "updateCheckSum": "0x862ebc25"
    },
    {
        "uuid": "19",
        "address": {
            "full": {
                "zh": "",
                "en": "Hong Kong Science Park Carpark P2, B/F, 8-10 Science Park West Avenue, Shatin, N.T."
            },
            "streetName": "Hong Kong Science Park Carpark P2, B/F, 8-10 Science Park West Avenue, Shatin, N.T.",
            "region": "New Territories",
            "district": "Shatin",
            "locationName": {
                "zh": "",
                "en": "Hong Kong Science Park"
            },
            "geocode": {
                "WGS84": {
                    "lat": "22.4262580871582",
                    "lng": "114.20987701416"
                }
            }
        },
        "provider": "CLP",
        "type": {
            "charging": [
                "SemiQuick"
            ],
            "vehicle": "General"
        },
        "publicPermit": true,
        "parkingSlot": [
            "D42",
            "D43",
            "D44",
            "D45",
            "D46",
            "D47",
            "D48",
            "D49",
            "D50",
            "D51",
            "D52",
            "D106",
            "D107",
            "D108",
            "D109",
            "D110",
            "D111",
            "D112"
        ],
        "updateCheckSum": "0xe2b25719"
    },
    {
        "uuid": "20",
        "address": {
            "full": {
                "zh": "",
                "en": "Tin Shing Court Carpark, 3/F, 3 Tin Ching Street, Tin Shui Wai,Yuen Long, N.T."
            },
            "streetName": "Tin Shing Court Carpark, 3/F, 3 Tin Ching Street, Tin Shui Wai,Yuen Long, N.T.",
            "region": "New Territories",
            "district": "Yuen Long",
            "locationName": {
                "zh": "",
                "en": "Tin Shing Court"
            },
            "geocode": {
                "WGS84": {
                    "lat": "22.4493846893311",
                    "lng": "114.001853942871"
                }
            }
        },
        "provider": "CLP",
        "type": {
            "charging": [
                "Standard"
            ],
            "vehicle": "General"
        },
        "publicPermit": true,
        "parkingSlot": [
            "3177",
            "3178",
            "3179",
            "3180",
            "3181",
            "3182",
            "3183",
            "3184",
            "3185",
            "3186",
            "3189",
            "3190",
            "3191",
            "3192",
            "3193",
            "3194",
            "3195",
            "3196",
            "3197",
            "3198",
            "3199",
            "3200",
            "3201",
            "3202",
            "3203",
            "3204",
            "3205",
            "3206"
        ],
        "updateCheckSum": "0xa96b7183"
    },
    {
        "uuid": "21",
        "address": {
            "full": {
                "zh": "",
                "en": "Shatin Centre Carpark, 2/F,  2-16 Wang Pok Street, Shatin, N.T."
            },
            "streetName": "Shatin Centre Carpark, 2/F,  2-16 Wang Pok Street, Shatin, N.T.",
            "region": "New Territories",
            "district": "Shatin",
            "locationName": {
                "zh": "",
                "en": "Shatin Centre"
            },
            "geocode": {
                "WGS84": {
                    "lat": "22.382116317749",
                    "lng": "114.190078735352"
                }
            }
        },
        "provider": "CLP",
        "type": {
            "charging": [
                "SemiQuick"
            ],
            "vehicle": "General"
        },
        "publicPermit": true,
        "parkingSlot": [
            "73",
            "74",
            "75"
        ],
        "updateCheckSum": "0x216c6a2b"
    },
    {
        "uuid": "22",
        "address": {
            "full": {
                "zh": "",
                "en": "Mira Mall Carpark, B2/F 132 Nathan Road, Tsim Sha Tsui, Kln"
            },
            "streetName": "Mira Mall Carpark, B2/F 132 Nathan Road, Tsim Sha Tsui, Kln",
            "region": "Kowloon",
            "district": "Yau Tsim Mong",
            "locationName": {
                "zh": "",
                "en": "Mira Mall"
            },
            "geocode": {
                "WGS84": {
                    "lat": "22.3006286621094",
                    "lng": "114.172828674316"
                }
            }
        },
        "provider": "CLP",
        "type": {
            "charging": [
                "SemiQuick"
            ],
            "vehicle": "General"
        },
        "publicPermit": true,
        "parkingSlot": [
            "2116",
            "2117",
            "2118",
            "2119"
        ],
        "updateCheckSum": "0x403d4f58"
    },
    {
        "uuid": "23",
        "address": {
            "full": {
                "zh": "",
                "en": "Langham Place Carpark, B4/F,  8 Argyle Street, Mongkok, Kln"
            },
            "streetName": "Langham Place Carpark, B4/F,  8 Argyle Street, Mongkok, Kln",
            "region": "Kowloon",
            "district": "Yau Tsim Mong",
            "locationName": {
                "zh": "",
                "en": "Langham Place"
            },
            "geocode": {
                "WGS84": {
                    "lat": "22.3174228668213",
                    "lng": "114.168731689453"
                }
            }
        },
        "provider": "CLP",
        "type": {
            "charging": [
                "SemiQuick"
            ],
            "vehicle": "General"
        },
        "publicPermit": true,
        "parkingSlot": [
            "22",
            "41",
            "64"
        ],
        "updateCheckSum": "0x57559ade"
    },
    {
        "uuid": "24",
        "address": {
            "full": {
                "zh": "",
                "en": "Citygate North Carpark, B1/F, 20 Tat Tung Road, Tung Chung, Lantau"
            },
            "streetName": "Citygate North Carpark, B1/F, 20 Tat Tung Road, Tung Chung, Lantau",
            "region": "Outlying Islands",
            "district": "Outlying Islands",
            "locationName": {
                "zh": "",
                "en": "Citygate"
            },
            "geocode": {
                "WGS84": {
                    "lat": "22.2911186218262",
                    "lng": "113.943572998047"
                }
            }
        },
        "provider": "CLP",
        "type": {
            "charging": [
                "SemiQuick"
            ],
            "vehicle": "General"
        },
        "publicPermit": true,
        "parkingSlot": [
            "121",
            "122"
        ],
        "updateCheckSum": "0xe209f720"
    },
    {
        "uuid": "25",
        "address": {
            "full": {
                "zh": "",
                "en": "Clp Centenary Building, G/F, 1 To Wah Road, Jordan, Kowloon"
            },
            "streetName": "CLP Centenary Building, G/F, 1 To Wah Road, Jordan, Kowloon",
            "region": "Kowloon",
            "district": "Yau Tsim Mong",
            "locationName": {
                "zh": "",
                "en": "CLP Centenary Building"
            },
            "geocode": {
                "WGS84": {
                    "lat": "22.3077507019043",
                    "lng": "114.162055969238"
                }
            }
        },
        "provider": "CLP",
        "type": {
            "charging": [
                "Quick"
            ],
            "vehicle": "General"
        },
        "publicPermit": true,
        "parkingSlot": [
            "No information provided"
        ],
        "updateCheckSum": "0x99db5f59"
    },
    {
        "uuid": "26",
        "address": {
            "full": {
                "zh": "",
                "en": "Hong Kong Science Park Carpark P2, B/F, 8-10 Science Park West Avenue, Shatin, N.T."
            },
            "streetName": "Hong Kong Science Park Carpark P2, B/F, 8-10 Science Park West Avenue, Shatin, N.T.",
            "region": "New Territories",
            "district": "Shatin",
            "locationName": {
                "zh": "",
                "en": "Hong Kong Science Park"
            },
            "geocode": {
                "WGS84": {
                    "lat": "22.4263610839844",
                    "lng": "114.209915161133"
                }
            }
        },
        "provider": "CLP",
        "type": {
            "charging": [
                "Quick"
            ],
            "vehicle": "General"
        },
        "publicPermit": true,
        "parkingSlot": [
            "D104"
        ],
        "updateCheckSum": "0xc6539fd8"
    },
    {
        "uuid": "27",
        "address": {
            "full": {
                "zh": "",
                "en": "Hk International Airport Carpark 4, 1/F, 11 Cheong Tat Road, Hong Kong International Airport, Chek Lap Kok"
            },
            "streetName": "HK International Airport Carpark 4, 1/F, 11 Cheong Tat Road, Hong Kong International Airport, Chek Lap Kok",
            "region": "Outlying Islands",
            "district": "Outlying Islands",
            "locationName": {
                "zh": "",
                "en": "Hong Kong International Airport"
            },
            "geocode": {
                "WGS84": {
                    "lat": "22.3181991577148",
                    "lng": "113.933769226074"
                }
            }
        },
        "provider": "CLP",
        "type": {
            "charging": [
                "SemiQuick"
            ],
            "vehicle": "General"
        },
        "publicPermit": true,
        "parkingSlot": [
            "1004",
            "1005",
            "1085",
            "1086"
        ],
        "updateCheckSum": "0x333dfc27"
    },
    {
        "uuid": "28",
        "address": {
            "full": {
                "zh": "",
                "en": "The Peak Galleria Carpark, B1/F  118 Peak Road, The Peak, Hong Kong"
            },
            "streetName": "The Peak Galleria Carpark, B1/F  118 Peak Road, The Peak, Hong Kong",
            "region": "Hong Kong Island",
            "district": "Central and Western",
            "locationName": {
                "zh": "",
                "en": "The Peak Galleria"
            },
            "geocode": {
                "WGS84": {
                    "lat": "22.270471572876",
                    "lng": "114.149543762207"
                }
            }
        },
        "provider": "Others",
        "type": {
            "charging": [
                "Standard"
            ],
            "vehicle": "General"
        },
        "publicPermit": true,
        "parkingSlot": [
            "No information provided"
        ],
        "updateCheckSum": "0xa5bc94ab"
    },
    {
        "uuid": "29",
        "address": {
            "full": {
                "zh": "",
                "en": "Star Ferry Carpark 1/F,9 Edinburgh Place, Central, Hong Kong"
            },
            "streetName": "Star Ferry Carpark 1/F,9 Edinburgh Place, Central, Hong Kong",
            "region": "Hong Kong Island",
            "district": "Central and Western",
            "locationName": {
                "zh": "",
                "en": "Star Ferry"
            },
            "geocode": {
                "WGS84": {
                    "lat": "22.2830810546875",
                    "lng": "114.160255432129"
                }
            }
        },
        "provider": "Others",
        "type": {
            "charging": [
                "Standard",
                "SemiQuick"
            ],
            "vehicle": "General"
        },
        "publicPermit": true,
        "parkingSlot": [
            "No information provided"
        ],
        "updateCheckSum": "0x5e26b288"
    },
    {
        "uuid": "30",
        "address": {
            "full": {
                "zh": "",
                "en": "Cityplaza, Carpark B3  18 Taikoo Shing Road, Taikoo Shing, Hong Kong"
            },
            "streetName": "Cityplaza, Carpark B3  18 Taikoo Shing Road, Taikoo Shing, Hong Kong",
            "region": "Hong Kong Island",
            "district": "Eastern",
            "locationName": {
                "zh": "",
                "en": "Cityplaza"
            },
            "geocode": {
                "WGS84": {
                    "lat": "22.2865810394287",
                    "lng": "114.218032836914"
                }
            }
        },
        "provider": "Others",
        "type": {
            "charging": [
                "Standard"
            ],
            "vehicle": "General"
        },
        "publicPermit": true,
        "parkingSlot": [
            "No information provided"
        ],
        "updateCheckSum": "0x586c81c6"
    },
    {
        "uuid": "31",
        "address": {
            "full": {
                "zh": "",
                "en": "Oi Tung Estate Carpark, 2/F,  Oi Tung Estate, Shau Kei Wan, Hong Kong"
            },
            "streetName": "Oi Tung Estate Carpark, 2/F,  Oi Tung Estate, Shau Kei Wan, Hong Kong",
            "region": "Hong Kong Island",
            "district": "Eastern",
            "locationName": {
                "zh": "",
                "en": "Oi Tung Estate"
            },
            "geocode": {
                "WGS84": {
                    "lat": "22.2803726196289",
                    "lng": "114.226852416992"
                }
            }
        },
        "provider": "Others",
        "type": {
            "charging": [
                "Standard"
            ],
            "vehicle": "General"
        },
        "publicPermit": true,
        "parkingSlot": [
            "No information provided"
        ],
        "updateCheckSum": "0xef6497b1"
    },
    {
        "uuid": "32",
        "address": {
            "full": {
                "zh": "",
                "en": "Tin Hau Carpark, 3/F,  Lau Sin Street &Amp; Electric Road Junction, Tin Hau, Hong Kong"
            },
            "streetName": "Tin Hau Carpark, 3/F,  Lau Sin Street &amp; Electric Road Junction, Tin Hau, Hong Kong",
            "region": "Hong Kong Island",
            "district": "Eastern",
            "locationName": {
                "zh": "",
                "en": "Tin Hau Carpark"
            },
            "geocode": {
                "WGS84": {
                    "lat": "22.2830295562744",
                    "lng": "114.191688537598"
                }
            }
        },
        "provider": "Others",
        "type": {
            "charging": [
                "Standard"
            ],
            "vehicle": "General"
        },
        "publicPermit": true,
        "parkingSlot": [
            "No information provided"
        ],
        "updateCheckSum": "0x1f0ef987"
    },
    {
        "uuid": "33",
        "address": {
            "full": {
                "zh": "",
                "en": "Cyberport Car Park 1, 2/F Cyberport 2, 100 Cyberport Road, Hong Kong"
            },
            "streetName": "Cyberport Car Park 1, 2/F Cyberport 2, 100 Cyberport Road, Hong Kong",
            "region": "Hong Kong Island",
            "district": "Southern",
            "locationName": {
                "zh": "",
                "en": "Cyberport"
            },
            "geocode": {
                "WGS84": {
                    "lat": "22.262451171875",
                    "lng": "114.130599975586"
                }
            }
        },
        "provider": "Others",
        "type": {
            "charging": [
                "Standard"
            ],
            "vehicle": "General"
        },
        "publicPermit": true,
        "parkingSlot": [
            "No information provided"
        ],
        "updateCheckSum": "0x90dd9729"
    },
    {
        "uuid": "34",
        "address": {
            "full": {
                "zh": "",
                "en": "Hec Ex-Operational Headquarters, G/F 2 Yi Nga Drive, Ap Lei Chau, Hong Kong"
            },
            "streetName": "HEC ex-Operational Headquarters, G/F 2 Yi Nga Drive, Ap Lei Chau, Hong Kong",
            "region": "Hong Kong Island",
            "district": "Southern",
            "locationName": {
                "zh": "",
                "en": "HEC ex-Operational Headquarters"
            },
            "geocode": {
                "WGS84": {
                    "lat": "22.2434043884277",
                    "lng": "114.147987365723"
                }
            }
        },
        "provider": "Others",
        "type": {
            "charging": [
                "Quick"
            ],
            "vehicle": "General"
        },
        "publicPermit": true,
        "parkingSlot": [
            "No information provided"
        ],
        "updateCheckSum": "0x3b3f7a0c"
    },
    {
        "uuid": "35",
        "address": {
            "full": {
                "zh": "",
                "en": "The Centrium Carpark 8/F  60 Wyndham Street , Central Hk"
            },
            "streetName": "The Centrium Carpark 8/F  60 Wyndham Street , Central HK",
            "region": "Hong Kong Island",
            "district": "Central and Western",
            "locationName": {
                "zh": "",
                "en": "The Centrium"
            },
            "geocode": {
                "WGS84": {
                    "lat": "22.280725479126",
                    "lng": "114.154586791992"
                }
            }
        },
        "provider": "Others",
        "type": {
            "charging": [
                "Standard"
            ],
            "vehicle": "General"
        },
        "publicPermit": true,
        "parkingSlot": [
            "No information provided"
        ],
        "updateCheckSum": "0x14a75e1e"
    },
    {
        "uuid": "36",
        "address": {
            "full": {
                "zh": "",
                "en": "Citibank Plaza Carpark B2 &Amp; B3  Citibank Plaza Lcbc Tower , 3 Garden Road, Central, Hk"
            },
            "streetName": "Citibank Plaza Carpark B2 &amp; B3  Citibank Plaza Lcbc Tower , 3 Garden Road, Central, HK",
            "region": "Hong Kong Island",
            "district": "Central and Western",
            "locationName": {
                "zh": "",
                "en": "Citibank Plaza"
            },
            "geocode": {
                "WGS84": {
                    "lat": "22.2788238525391",
                    "lng": "114.160987854004"
                }
            }
        },
        "provider": "Others",
        "type": {
            "charging": [
                "Standard"
            ],
            "vehicle": "General"
        },
        "publicPermit": true,
        "parkingSlot": [
            "No information provided"
        ],
        "updateCheckSum": "0xd82c3d14"
    },
    {
        "uuid": "37",
        "address": {
            "full": {
                "zh": "",
                "en": "New World Tower Carpark 6/F 16-18 Queen&#39;S Rd Central, Hk"
            },
            "streetName": "New World Tower Carpark 6/F 16-18 Queen&#39;s Rd Central, HK",
            "region": "Hong Kong Island",
            "district": "Central and Western",
            "locationName": {
                "zh": "",
                "en": "New World Tower"
            },
            "geocode": {
                "WGS84": {
                    "lat": "22.280366897583",
                    "lng": "114.156875610352"
                }
            }
        },
        "provider": "Others",
        "type": {
            "charging": [
                "Standard"
            ],
            "vehicle": "General"
        },
        "publicPermit": true,
        "parkingSlot": [
            "No information provided"
        ],
        "updateCheckSum": "0x2fd1a69f"
    },
    {
        "uuid": "38",
        "address": {
            "full": {
                "zh": "",
                "en": "148 Electric Road Carpark 2/F 148 Electric Road , North Point, Hk"
            },
            "streetName": "148 Electric Road Carpark 2/F 148 Electric Road , North Point, HK",
            "region": "Hong Kong Island",
            "district": "Eastern",
            "locationName": {
                "zh": "",
                "en": "148 Electric Road"
            },
            "geocode": {
                "WGS84": {
                    "lat": "22.2864227294922",
                    "lng": "114.191902160645"
                }
            }
        },
        "provider": "Others",
        "type": {
            "charging": [
                "Standard"
            ],
            "vehicle": "General"
        },
        "publicPermit": true,
        "parkingSlot": [
            "No information provided"
        ],
        "updateCheckSum": "0xc9d9d9a"
    },
    {
        "uuid": "39",
        "address": {
            "full": {
                "zh": "",
                "en": "Cornell Centre Carpark 1/F 50 Wing Tai Road ,Chai Wan, Hk"
            },
            "streetName": "Cornell Centre Carpark 1/F 50 Wing Tai Road ,Chai Wan, HK",
            "region": "Hong Kong Island",
            "district": "Eastern",
            "locationName": {
                "zh": "",
                "en": "Cornell Centre"
            },
            "geocode": {
                "WGS84": {
                    "lat": "22.2677135467529",
                    "lng": "114.243087768555"
                }
            }
        },
        "provider": "Others",
        "type": {
            "charging": [
                "Standard"
            ],
            "vehicle": "General"
        },
        "publicPermit": true,
        "parkingSlot": [
            "No information provided"
        ],
        "updateCheckSum": "0x74f4b5e5"
    },
    {
        "uuid": "40",
        "address": {
            "full": {
                "zh": "",
                "en": "Island Resort Carpark 1/F ,  28 Siu Sai Wan Road, Chai Wan, Hk"
            },
            "streetName": "Island Resort Carpark 1/F ,  28 Siu Sai Wan Road, Chai Wan, HK",
            "region": "Hong Kong Island",
            "district": "Eastern",
            "locationName": {
                "zh": "",
                "en": "Island Resort"
            },
            "geocode": {
                "WGS84": {
                    "lat": "22.2654590606689",
                    "lng": "114.251121520996"
                }
            }
        },
        "provider": "Others",
        "type": {
            "charging": [
                "Standard"
            ],
            "vehicle": "General"
        },
        "publicPermit": true,
        "parkingSlot": [
            "No information provided"
        ],
        "updateCheckSum": "0x9e38031e"
    }
]